…
-   tempo de produção
-   qualidade dos ingredientes
    -   muito açucar
    -   derrete na boca
-   shape

``` r
chocolate %>%
  group_by(company_manufacturer,company_location) %>%
  group_by(company_location) %>%
  count() %>%
  arrange(desc(n))
```

    ## # A tibble: 67 x 2
    ## # Groups:   company_location [67]
    ##    company_location     n
    ##    <chr>            <int>
    ##  1 U.S.A.            1136
    ##  2 Canada             177
    ##  3 France             176
    ##  4 U.K.               133
    ##  5 Italy               78
    ##  6 Belgium             63
    ##  7 Ecuador             58
    ##  8 Australia           53
    ##  9 Switzerland         44
    ## 10 Germany             42
    ## # ... with 57 more rows
…
